{
  "id": "weather-control",
  "## comment:name": "deprecated, remove after v13 release",
  "name": "weather-control",
  "class": "WeatherControl",
  "title": "Weather Control",
  "description": "Add dynamic weather to your FoundryVTT world.",
  "version": "4.1.9",
  "## comment:minimumCoreVersion": "deprecated, remove after v13 release",
  "minimumCoreVersion": "0.8.0",
  "## comment:compatibleCoreVersion": "deprecated, remove after v13 release",
  "compatibleCoreVersion": "10",
  "compatibility": {
    "minimum": "0.8.0",
    "verified": "10"
  },
  "versionsWithNotices": [
    "4.0.1"
  ],
  "authors": [
    {
      "name": "Julien Stébennne",
      "discord": "The Bird#8334",
      "patreon": "thebird956"
    }
  ],
  "url": "https://gitlab.com/jstebenne/foundryvtt-weather-control",
  "manifest": "https://gitlab.com/jstebenne/foundryvtt-weather-control/-/raw/master/static/module.json",
  "download": "https://gitlab.com/jstebenne/foundryvtt-weather-control/-/jobs/artifacts/v4.1.9/raw/weather-control.zip?job=pack",
  "esmodules": [
    "weather-control.js"
  ],
  "styles": [
    "weather-control.css"
  ],
  "packs": [],
  "languages": [
    {
      "lang": "en",
      "name": "English",
      "path": "lang/en.json"
    },
    {
      "lang": "fr",
      "name": "Français",
      "path": "lang/fr.json"
    },
    {
      "lang": "ko",
      "name": "Korean",
      "path": "lang/ko.json"
    },
    {
      "lang": "de",
      "name": "Deutsch",
      "path": "lang/de.json"
    },
    {
      "lang": "ja",
      "name": "日本語",
      "path": "lang/ja.json"
    },
    {
      "lang": "pt-BR",
      "name": "Português (Brasil)",
      "path": "lang/pt-BR.json"
    },
    {
      "lang": "es",
      "name": "Español",
      "path": "lang/es.json"
    },
    {
      "lang": "pl",
      "name": "Polski",
      "path": "lang/pl.json"
    },
    {
      "lang": "cn",
      "name": "简体中文",
      "path": "lang/cn.json"
    }
  ],
  "## comment:dependencies": "deprecated, remove after v13 release",
  "dependencies": [
    {
      "name": "foundryvtt-simple-calendar",
      "manifest": "https://github.com/vigoren/foundryvtt-simple-calendar/releases/latest/download/module.json"
    }
  ],
  "relationships": {
    "requires": [
      {
        "id": "foundryvtt-simple-calendar",
        "type": "module",
        "manifest": "https://github.com/vigoren/foundryvtt-simple-calendar/releases/latest/download/module.json",
        "compatiblity": {
          "verified": "2.0.30"
        }
      }
    ]
  }
}
